…
```
## 
## ── Column specification ──────────────────────────────────────────────────────────────
## cols(
##   `Important notes` = col_double(),
##   X2 = col_double()
## )
```

```r
population_england
```

```
## # A tibble: 49 x 2
##    `Important notes`       X2
##                <dbl>    <dbl>
##  1              1971 46411700
##  2              1972 46571900
##  3              1973 46686200
##  4              1974 46682700
##  5              1975 46674400
##  6              1976 46659900
##  7              1977 46639800
##  8              1978 46638200
##  9              1979 46698100
## 10              1980 46787200
## # … with 39 more rows
```
…
