…
``` r
counter_means_year %>%
  group_by(Borough) %>%
  summarise(mean_counts = mean(mean_counts)) %>%
  arrange(desc(mean_counts))
```

    ## `summarise()` ungrouping output (override with `.groups` argument)

    ## # A tibble: 33 x 2
    ##    Borough              mean_counts
    ##    <chr>                      <dbl>
    ##  1 City of London             23.2 
    ##  2 Islington                  14.8 
    ##  3 Southwark                  14.4 
    ##  4 Camden                     13.8 
    ##  5 Westminster                13.2 
    ##  6 Lambeth                    11.6 
    ##  7 Kensington & Chelsea        9.67
    ##  8 Hackney                     8.00
    ##  9 Hammersmith & Fulham        6.37
    ## 10 Tower Hamlets               6.13
    ## # … with 23 more rows
…
